%YAML 1.1
%TAG !u! tag:unity3d.com,2011:
--- !u!74 &7400000
AnimationClip:
  m_ObjectHideFlags: 0
  m_CorrespondingSourceObject: {fileID: 0}
  m_PrefabInstance: {fileID: 0}
  m_PrefabAsset: {fileID: 0}
  m_Name: Coin
  serializedVersion: 6
  m_Legacy: 0
  m_Compressed: 0
  m_UseHighQualityCurve: 1
  m_RotationCurves: []
  m_CompressedRotationCurves: []
  m_EulerCurves: []
  m_PositionCurves: []
  m_ScaleCurves: []
  m_FloatCurves: []
  m_PPtrCurves:
  - curve:
    - time: 0
      value: {fileID: 21300000, guid: f634976f10b32f149a6b02c834c3b592, type: 3}
    - time: 0.083333336
      value: {fileID: 21300000, guid: f3244cea835dfc0449db74a693b01083, type: 3}
    - time: 0.16666667
      value: {fileID: 21300000, guid: db8963e851fa63744beca86588238482, type: 3}
    - time: 0.25
      value: {fileID: 21300000, guid: b058f4ef6f5e9a947a8faa7a8f21c9d3, type: 3}
    - time: 0.33333334
      value: {fileID: 21300000, guid: 763c34d9779e12d40af28992607d1316, type: 3}
    - time: 0.41666666
      value: {fileID: 21300000, guid: ac6e7cd86f71ba749802db4b86172f1d, type: 3}
    - time: 0.5
      value: {fileID: 21300000, guid: 9c34f5e47e11e424196acad8c0b05065, type: 3}
    - time: 0.5833333
      value: {fileID: 21300000, guid: b8da914552884c04fbde026f2314958b, type: 3}
    - time: 0.6666667
      value: {fileID: 21300000, guid: a7a677fd332ac0545afed19567fa4b80, type: 3}
    - time: 0.75
      value: {fileID: 21300000, guid: 233d8f9c25b578b4a8a13cc6bb12c7d6, type: 3}
    attribute: m_Sprite
    path: 
    classID: 212
    script: {fileID: 0}
  m_SampleRate: 12
  m_WrapMode: 0
  m_Bounds:
    m_Center: {x: 0, y: 0, z: 0}
    m_Extent: {x: 0, y: 0, z: 0}
  m_ClipBindingConstant:
    genericBindings:
    - serializedVersion: 2
      path: 0
      attribute: 0
      script: {fileID: 0}
      typeID: 212
      customType: 23
      isPPtrCurve: 1
    pptrCurveMapping:
    - {fileID: 21300000, guid: f634976f10b32f149a6b02c834c3b592, type: 3}
    - {fileID: 21300000, guid: f3244cea835dfc0449db74a693b01083, type: 3}
    - {fileID: 21300000, guid: db8963e851fa63744beca86588238482, type: 3}
    - {fileID: 21300000, guid: b058f4ef6f5e9a947a8faa7a8f21c9d3, type: 3}
    - {fileID: 21300000, guid: 763c34d9779e12d40af28992607d1316, type: 3}
    - {fileID: 21300000, guid: ac6e7cd86f71ba749802db4b86172f1d, type: 3}
    - {fileID: 21300000, guid: 9c34f5e47e11e424196acad8c0b05065, type: 3}
    - {fileID: 21300000, guid: b8da914552884c04fbde026f2314958b, type: 3}
    - {fileID: 21300000, guid: a7a677fd332ac0545afed19567fa4b80, type: 3}
    - {fileID: 21300000, guid: 233d8f9c25b578b4a8a13cc6bb12c7d6, type: 3}
  m_AnimationClipSettings:
    serializedVersion: 2
    m_AdditiveReferencePoseClip: {fileID: 0}
    m_AdditiveReferencePoseTime: 0
    m_StartTime: 0
    m_StopTime: 0.8333333
    m_OrientationOffsetY: 0
    m_Level: 0
    m_CycleOffset: 0
    m_HasAdditiveReferencePose: 0
    m_LoopTime: 1
    m_LoopBlend: 0
    m_LoopBlendOrientation: 0
    m_LoopBlendPositionY: 0
    m_LoopBlendPositionXZ: 0
    m_KeepOriginalOrientation: 0
    m_KeepOriginalPositionY: 1
    m_KeepOriginalPositionXZ: 0
    m_HeightFromFeet: 0
    m_Mirror: 0
  m_EditorCurves: []
  m_EulerEditorCurves: []
  m_HasGenericRootTransform: 0
  m_HasMotionFloatCurves: 0
  m_Events: []
